Huffman Compression Efficiency,Original File Size (bytes),Compression Percentage (%)
Low Frequency,16,425.0
Low Frequency,32,415.0
Low Frequency,64,268.0
Low Frequency,128,167.0
Low Frequency,256,113.0
Low Frequency,512,86.0
Low Frequency,1024,73.0
Low Frequency,2048,66.0
Low Frequency,4096,63.0
Low Frequency,8192,61.0
Low Frequency,16384,60.0
Low Frequency,32768,60.0
Low Frequency,65536,60.0
Low Frequency,131072,60.0
Low Frequency,262144,60.0
Low Frequency,524288,60.0
High Frequency,16,150.0
High Frequency,32,103.0
High Frequency,64,85.0
High Frequency,128,64.0
High Frequency,256,50.0
High Frequency,512,40.0
High Frequency,1024,37.0
High Frequency,2048,36.0
High Frequency,4096,35.0
High Frequency,8192,35.0
High Frequency,16384,35.0
High Frequency,32768,35.0
High Frequency,65536,35.0
High Frequency,131072,35.0
High Frequency,262144,35.0
High Frequency,524288,35.0
