LLS pop(),1024,4176.5
LLS pop(),2048,4162.233333333334
LLS pop(),4096,2223.633333333333
LLS pop(),8192,1582.1
LLS pop(),16384,2380.5
LLS pop(),32768,2423.3333333333335
LLS pop(),65536,3520.7
LLS pop(),131072,4247.933333333333
LLS pop(),262144,6585.366666666667
LLS pop(),524288,1097.5333333333333
LLS pop(),1048576,1211.7
LLS pop(),2097152,1097.6666666666667
LLS pop(),4194304,2152.3333333333335
LLS pop(),8388608,5245.566666666667
LLS pop(),16777216,7170.033333333334
LLS pop(),33554432,6756.833333333333
