Low Frequency,16,68
Low Frequency,32,133
Low Frequency,64,172
Low Frequency,128,215
Low Frequency,256,291
Low Frequency,512,441
Low Frequency,1024,750
Low Frequency,2048,1361
Low Frequency,4096,2588
Low Frequency,8192,5041
Low Frequency,16384,9956
Low Frequency,32768,19786
Low Frequency,65536,39462
Low Frequency,131072,78823
Low Frequency,262144,157550
Low Frequency,524288,315051
