ORIGIN,DESTINATION,CARRIER,DELAY,CANCELED,TIME,DISTANCE,COST
MZL,RGS,OO,95,0,333,2298,1050.89
MZL,IIT,OO,439,0,252,1740,918.61
IIT,MZL,DL,34,1,252,1740,808.91
IIT,UAZ,UA,169,1,205,1421,215.11
IIT,MZL,MQ,342,1,252,1740,727.26
IIT,UAZ,OO,96,0,205,1421,697.27
JIA,IIT,DL,385,0,189,1308,657.73
JIA,RGS,AA,244,0,163,1129,540.51
JIA,IIT,UA,443,1,189,1308,213.91
RGS,IIT,OO,105,1,105,725,468.45
RGS,MZL,OO,475,1,333,2298,1050.89
RGS,UAZ,OO,364,0,102,708,207.53
RGS,MZL,WN,84,1,333,2298,738.09
RGS,JIA,AA,39,0,163,1129,540.51
UAZ,JIA,HA,33,0,266,1836,958.26